[
	{ "name": "Arrakis Eternity", "url": "http://dxkdul4cprxwx.cloudfront.net/bbeb4e1a250c48e98ef350148346ef3f_orig.jpg" },
	{ "name": "Deicidal Detonation", "url": "http://dxkdul4cprxwx.cloudfront.net/e41bb56777544f3e994d3864ac807237_orig.jpg" },
	{ "name": "Ecto-Agriolimax", "url": "http://dxkdul4cprxwx.cloudfront.net/ebc72da041954606a6d869b264944e41_orig.jpg" },
	{ "name": "Ecto-Conduit", "url": "http://dxkdul4cprxwx.cloudfront.net/1fc16cb3cf10466e99ea1a5a98fa029e_orig.jpg" }
]
